%YAML 1.1
%TAG !u! tag:unity3d.com,2011:
--- !u!78 &1
TagManager:
  serializedVersion: 2
  tags:
  - Floor
  - ColorSwitch
  - OCTouchPlayer
  - InteractuableObject
  - DropoffArea
  - SimonSays
  - GearPlayer
  - HTCPlayer
  - HTCPlatform
  - SwitchMode
  - WinUmbral
  - ActionableObjects
  - TutorialUmbral
  layers:
  - Default
  - TransparentFX
  - Ignore Raycast
  - 
  - Water
  - UI
  - 
  - 
  - 
  - 
  - 
  - 
  - 
  - 
  - 
  - 
  - 
  - 
  - 
  - 
  - 
  - 
  - 
  - 
  - 
  - 
  - 
  - 
  - 
  - 
  - 
  - 
  m_SortingLayers:
  - name: Default
    uniqueID: 0
    locked: 0
